nvboard/mustdo/digtalelec/ex1/wave.vcd
$version Generated by VerilatedVcd $end
$timescale 1ps $end

 $scope module TOP $end
  $var wire  8 1 a [7:0] $end
  $var wire  2 2 s [1:0] $end
  $var wire  2 3 y [1:0] $end
  $scope module top $end
   $var wire  8 1 a [7:0] $end
   $var wire  2 2 s [1:0] $end
   $var wire  2 3 y [1:0] $end
   $scope module i0 $end
    $var wire 32 6 DATA_LEN [31:0] $end
    $var wire 32 6 KEY_LEN [31:0] $end
    $var wire 32 5 NR_KEY [31:0] $end
    $var wire  2 2 key [1:0] $end
    $var wire 16 4 lut [15:0] $end
    $var wire  2 3 out [1:0] $end
    $scope module i0 $end
     $var wire 32 6 DATA_LEN [31:0] $end
     $var wire 32 7 HAS_DEFAULT [31:0] $end
     $var wire 32 6 KEY_LEN [31:0] $end
     $var wire 32 5 NR_KEY [31:0] $end
     $var wire 32 5 PAIR_LEN [31:0] $end
     $var wire  2 + data_list[0] [1:0] $end
     $var wire  2 , data_list[1] [1:0] $end
     $var wire  2 - data_list[2] [1:0] $end
     $var wire  2 . data_list[3] [1:0] $end
     $var wire  2 8 default_out [1:0] $end
     $var wire  1 0 hit $end
     $var wire 32 9 i [31:0] $end
     $var wire  2 2 key [1:0] $end
     $var wire  2 # key_list[0] [1:0] $end
     $var wire  2 $ key_list[1] [1:0] $end
     $var wire  2 % key_list[2] [1:0] $end
     $var wire  2 & key_list[3] [1:0] $end
     $var wire 16 4 lut [15:0] $end
     $var wire  2 / lut_out [1:0] $end
     $var wire  2 3 out [1:0] $end
     $var wire  4 ' pair_list[0] [3:0] $end
     $var wire  4 ( pair_list[1] [3:0] $end
     $var wire  4 ) pair_list[2] [3:0] $end
     $var wire  4 * pair_list[3] [3:0] $end
    $upscope $end
   $upscope $end
  $upscope $end
 $upscope $end
$enddefinitions $end


#0
b00 #
b00 $
b00 %
b00 &
b0000 '
b0000 (
b0000 )
b0000 *
b00 +
b00 ,
b00 -
b00 .
b00 /
00
b00000000 1
b00 2
b00 3
b0000010010001100 4
b00000000000000000000000000000100 5
b00000000000000000000000000000010 6
b00000000000000000000000000000000 7
b00 8
b00000000000000000000000000000100 9
#1
b11 #
b10 $
b01 %
b1100 '
b1000 (
b0100 )
10
#2
b0001 *
b01 .
b01 /
b00000001 1
b01 3
b0001010010001100 4
#3
b0010 *
b10 .
b10 /
b00000010 1
b10 3
b0010010010001100 4
#4
b0011 *
b11 .
b11 /
b00000011 1
b11 3
b0011010010001100 4
#5
b0101 )
b0000 *
b01 -
b00 .
b00 /
b00000100 1
b00 3
b0000010110001100 4
#6
b0001 *
b01 .
b01 /
b00000101 1
b01 3
b0001010110001100 4
#7
b0010 *
b10 .
b10 /
b00000110 1
b10 3
b0010010110001100 4
#8
b0011 *
b11 .
b11 /
b00000111 1
b11 3
b0011010110001100 4
#9
b0110 )
b0000 *
b10 -
b00 .
b00 /
b00001000 1
b00 3
b0000011010001100 4
#10
b0001 *
b01 .
b01 /
b00001001 1
b01 3
b0001011010001100 4
#11
b0010 *
b10 .
b10 /
b00001010 1
b10 3
b0010011010001100 4
#12
b0011 *
b11 .
b11 /
b00001011 1
b11 3
b0011011010001100 4
#13
b0111 )
b0000 *
b11 -
b00 .
b00 /
b00001100 1
b00 3
b0000011110001100 4
#14
b0001 *
b01 .
b01 /
b00001101 1
b01 3
b0001011110001100 4
#15
b0010 *
b10 .
b10 /
b00001110 1
b10 3
b0010011110001100 4
#16
b0011 *
b11 .
b11 /
b00001111 1
b11 3
b0011011110001100 4
#17
b1001 (
b0100 )
b0000 *
b01 ,
b00 -
b00 .
b00 /
b00010000 1
b00 3
b0000010010011100 4
#18
b0001 *
b01 .
b01 /
b00010001 1
b01 3
b0001010010011100 4
#19
b0010 *
b10 .
b10 /
b00010010 1
b10 3
b0010010010011100 4
#20
b0011 *
b11 .
b11 /
b00010011 1
b11 3
b0011010010011100 4
#21
b0101 )
b0000 *
b01 -
b00 .
b00 /
b00010100 1
b00 3
b0000010110011100 4
#22
b0001 *
b01 .
b01 /
b00010101 1
b01 3
b0001010110011100 4
#23
b0010 *
b10 .
b10 /
b00010110 1
b10 3
b0010010110011100 4
#24
b0011 *
b11 .
b11 /
b00010111 1
b11 3
b0011010110011100 4
#25
b0110 )
b0000 *
b10 -
b00 .
b00 /
b00011000 1
b00 3
b0000011010011100 4
#26
b0001 *
b01 .
b01 /
b00011001 1
b01 3
b0001011010011100 4
#27
b0010 *
b10 .
b10 /
b00011010 1
b10 3
b0010011010011100 4
#28
b0011 *
b11 .
b11 /
b00011011 1
b11 3
b0011011010011100 4
#29
b0111 )
b0000 *
b11 -
b00 .
b00 /
b00011100 1
b00 3
b0000011110011100 4
#30
b0001 *
b01 .
b01 /
b00011101 1
b01 3
b0001011110011100 4
#31
b0010 *
b10 .
b10 /
b00011110 1
b10 3
b0010011110011100 4
#32
b0011 *
b11 .
b11 /
b00011111 1
b11 3
b0011011110011100 4
#33
b1010 (
b0100 )
b0000 *
b10 ,
b00 -
b00 .
b00 /
b00100000 1
b00 3
b0000010010101100 4
#34
b0001 *
b01 .
b01 /
b00100001 1
b01 3
b0001010010101100 4
#35
b0010 *
b10 .
b10 /
b00100010 1
b10 3
b0010010010101100 4
#36
b0011 *
b11 .
b11 /
b00100011 1
b11 3
b0011010010101100 4
#37
b0101 )
b0000 *
b01 -
b00 .
b00 /
b00100100 1
b00 3
b0000010110101100 4
#38
b0001 *
b01 .
b01 /
b00100101 1
b01 3
b0001010110101100 4
#39
b0010 *
b10 .
b10 /
b00100110 1
b10 3
b0010010110101100 4
#40
b0011 *
b11 .
b11 /
b00100111 1
b11 3
b0011010110101100 4
#41
b0110 )
b0000 *
b10 -
b00 .
b00 /
b00101000 1
b00 3
b0000011010101100 4
#42
b0001 *
b01 .
b01 /
b00101001 1
b01 3
b0001011010101100 4
#43
b0010 *
b10 .
b10 /
b00101010 1
b10 3
b0010011010101100 4
#44
b0011 *
b11 .
b11 /
b00101011 1
b11 3
b0011011010101100 4
#45
b0111 )
b0000 *
b11 -
b00 .
b00 /
b00101100 1
b00 3
b0000011110101100 4
#46
b0001 *
b01 .
b01 /
b00101101 1
b01 3
b0001011110101100 4
#47
b0010 *
b10 .
b10 /
b00101110 1
b10 3
b0010011110101100 4
#48
b0011 *
b11 .
b11 /
b00101111 1
b11 3
b0011011110101100 4
#49
b1011 (
b0100 )
b0000 *
b11 ,
b00 -
b00 .
b00 /
b00110000 1
b00 3
b0000010010111100 4
#50
b0001 *
b01 .
b01 /
b00110001 1
b01 3
b0001010010111100 4
#51
b0010 *
b10 .
b10 /
b00110010 1
b10 3
b0010010010111100 4
#52
b0011 *
b11 .
b11 /
b00110011 1
b11 3
b0011010010111100 4
#53
b0101 )
b0000 *
b01 -
b00 .
b00 /
b00110100 1
b00 3
b0000010110111100 4
#54
b0001 *
b01 .
b01 /
b00110101 1
b01 3
b0001010110111100 4
#55
b0010 *
b10 .
b10 /
b00110110 1
b10 3
b0010010110111100 4
#56
b0011 *
b11 .
b11 /
b00110111 1
b11 3
b0011010110111100 4
#57
b0110 )
b0000 *
b10 -
b00 .
b00 /
b00111000 1
b00 3
b0000011010111100 4
#58
b0001 *
b01 .
b01 /
b00111001 1
b01 3
b0001011010111100 4
#59
b0010 *
b10 .
b10 /
b00111010 1
b10 3
b0010011010111100 4
#60
b0011 *
b11 .
b11 /
b00111011 1
b11 3
b0011011010111100 4
#61
b0111 )
b0000 *
b11 -
b00 .
b00 /
b00111100 1
b00 3
b0000011110111100 4
#62
b0001 *
b01 .
b01 /
b00111101 1
b01 3
b0001011110111100 4
#63
b0010 *
b10 .
b10 /
b00111110 1
b10 3
b0010011110111100 4
#64
b0011 *
b11 .
b11 /
b00111111 1
b11 3
b0011011110111100 4
#65
b1101 '
b1000 (
b0100 )
b0000 *
b01 +
b00 ,
b00 -
b00 .
b00 /
b01000000 1
b00 3
b0000010010001101 4
#66
b0001 *
b01 .
b01 /
b01000001 1
b01 3
b0001010010001101 4
#67
b0010 *
b10 .
b10 /
b01000010 1
b10 3
b0010010010001101 4
#68
b0011 *
b11 .
b11 /
b01000011 1
b11 3
b0011010010001101 4
#69
b0101 )
b0000 *
b01 -
b00 .
b00 /
b01000100 1
b00 3
b0000010110001101 4
#70
b0001 *
b01 .
b01 /
b01000101 1
b01 3
b0001010110001101 4
#71
b0010 *
b10 .
b10 /
b01000110 1
b10 3
b0010010110001101 4
#72
b0011 *
b11 .
b11 /
b01000111 1
b11 3
b0011010110001101 4
#73
b0110 )
b0000 *
b10 -
b00 .
b00 /
b01001000 1
b00 3
b0000011010001101 4
#74
b0001 *
b01 .
b01 /
b01001001 1
b01 3
b0001011010001101 4
#75
b0010 *
b10 .
b10 /
b01001010 1
b10 3
b0010011010001101 4
#76
b0011 *
b11 .
b11 /
b01001011 1
b11 3
b0011011010001101 4
#77
b0111 )
b0000 *
b11 -
b00 .
b00 /
b01001100 1
b00 3
b0000011110001101 4
#78
b0001 *
b01 .
b01 /
b01001101 1
b01 3
b0001011110001101 4
#79
b0010 *
b10 .
b10 /
b01001110 1
b10 3
b0010011110001101 4
#80
b0011 *
b11 .
b11 /
b01001111 1
b11 3
b0011011110001101 4
#81
b1001 (
b0100 )
b0000 *
b01 ,
b00 -
b00 .
b00 /
b01010000 1
b00 3
b0000010010011101 4
#82
b0001 *
b01 .
b01 /
b01010001 1
b01 3
b0001010010011101 4
#83
b0010 *
b10 .
b10 /
b01010010 1
b10 3
b0010010010011101 4
#84
b0011 *
b11 .
b11 /
b01010011 1
b11 3
b0011010010011101 4
#85
b0101 )
b0000 *
b01 -
b00 .
b00 /
b01010100 1
b00 3
b0000010110011101 4
#86
b0001 *
b01 .
b01 /
b01010101 1
b01 3
b0001010110011101 4
#87
b0010 *
b10 .
b10 /
b01010110 1
b10 3
b0010010110011101 4
#88
b0011 *
b11 .
b11 /
b01010111 1
b11 3
b0011010110011101 4
#89
b0110 )
b0000 *
b10 -
b00 .
b00 /
b01011000 1
b00 3
b0000011010011101 4
#90
b0001 *
b01 .
b01 /
b01011001 1
b01 3
b0001011010011101 4
#91
b0010 *
b10 .
b10 /
b01011010 1
b10 3
b0010011010011101 4
#92
b0011 *
b11 .
b11 /
b01011011 1
b11 3
b0011011010011101 4
#93
b0111 )
b0000 *
b11 -
b00 .
b00 /
b01011100 1
b00 3
b0000011110011101 4
#94
b0001 *
b01 .
b01 /
b01011101 1
b01 3
b0001011110011101 4
#95
b0010 *
b10 .
b10 /
b01011110 1
b10 3
b0010011110011101 4
#96
b0011 *
b11 .
b11 /
b01011111 1
b11 3
b0011011110011101 4
#97
b1010 (
b0100 )
b0000 *
b10 ,
b00 -
b00 .
b00 /
b01100000 1
b00 3
b0000010010101101 4
#98
b0001 *
b01 .
b01 /
b01100001 1
b01 3
b0001010010101101 4
#99
b0010 *
b10 .
b10 /
b01100010 1
b10 3
b0010010010101101 4
#100
b0011 *
b11 .
b11 /
b01100011 1
b11 3
b0011010010101101 4
#101
b0101 )
b0000 *
b01 -
b00 .
b00 /
b01100100 1
b00 3
b0000010110101101 4
#102
b0001 *
b01 .
b01 /
b01100101 1
b01 3
b0001010110101101 4
#103
b0010 *
b10 .
b10 /
b01100110 1
b10 3
b0010010110101101 4
#104
b0011 *
b11 .
b11 /
b01100111 1
b11 3
b0011010110101101 4
#105
b0110 )
b0000 *
b10 -
b00 .
b00 /
b01101000 1
b00 3
b0000011010101101 4
#106
b0001 *
b01 .
b01 /
b01101001 1
b01 3
b0001011010101101 4
#107
b0010 *
b10 .
b10 /
b01101010 1
b10 3
b0010011010101101 4
#108
b0011 *
b11 .
b11 /
b01101011 1
b11 3
b0011011010101101 4
#109
b0111 )
b0000 *
b11 -
b00 .
b00 /
b01101100 1
b00 3
b0000011110101101 4
#110
b0001 *
b01 .
b01 /
b01101101 1
b01 3
b0001011110101101 4
#111
b0010 *
b10 .
b10 /
b01101110 1
b10 3
b0010011110101101 4
#112
b0011 *
b11 .
b11 /
b01101111 1
b11 3
b0011011110101101 4
#113
b1011 (
b0100 )
b0000 *
b11 ,
b00 -
b00 .
b00 /
b01110000 1
b00 3
b0000010010111101 4
#114
b0001 *
b01 .
b01 /
b01110001 1
b01 3
b0001010010111101 4
#115
b0010 *
b10 .
b10 /
b01110010 1
b10 3
b0010010010111101 4
#116
b0011 *
b11 .
b11 /
b01110011 1
b11 3
b0011010010111101 4
#117
b0101 )
b0000 *
b01 -
b00 .
b00 /
b01110100 1
b00 3
b0000010110111101 4
#118
b0001 *
b01 .
b01 /
b01110101 1
b01 3
b0001010110111101 4
#119
b0010 *
b10 .
b10 /
b01110110 1
b10 3
b0010010110111101 4
#120
b0011 *
b11 .
b11 /
b01110111 1
b11 3
b0011010110111101 4
#121
b0110 )
b0000 *
b10 -
b00 .
b00 /
b01111000 1
b00 3
b0000011010111101 4
#122
b0001 *
b01 .
b01 /
b01111001 1
b01 3
b0001011010111101 4
#123
b0010 *
b10 .
b10 /
b01111010 1
b10 3
b0010011010111101 4
#124
b0011 *
b11 .
b11 /
b01111011 1
b11 3
b0011011010111101 4
#125
b0111 )
b0000 *
b11 -
b00 .
b00 /
b01111100 1
b00 3
b0000011110111101 4
#126
b0001 *
b01 .
b01 /
b01111101 1
b01 3
b0001011110111101 4
#127
b0010 *
b10 .
b10 /
b01111110 1
b10 3
b0010011110111101 4
#128
b0011 *
b11 .
b11 /
b01111111 1
b11 3
b0011011110111101 4
#129
b1110 '
b1000 (
b0100 )
b0000 *
b10 +
b00 ,
b00 -
b00 .
b00 /
b10000000 1
b00 3
b0000010010001110 4
#130
b0001 *
b01 .
b01 /
b10000001 1
b01 3
b0001010010001110 4
#131
b0010 *
b10 .
b10 /
b10000010 1
b10 3
b0010010010001110 4
#132
b0011 *
b11 .
b11 /
b10000011 1
b11 3
b0011010010001110 4
#133
b0101 )
b0000 *
b01 -
b00 .
b00 /
b10000100 1
b00 3
b0000010110001110 4
#134
b0001 *
b01 .
b01 /
b10000101 1
b01 3
b0001010110001110 4
#135
b0010 *
b10 .
b10 /
b10000110 1
b10 3
b0010010110001110 4
#136
b0011 *
b11 .
b11 /
b10000111 1
b11 3
b0011010110001110 4
#137
b0110 )
b0000 *
b10 -
b00 .
b00 /
b10001000 1
b00 3
b0000011010001110 4
#138
b0001 *
b01 .
b01 /
b10001001 1
b01 3
b0001011010001110 4
#139
b0010 *
b10 .
b10 /
b10001010 1
b10 3
b0010011010001110 4
#140
b0011 *
b11 .
b11 /
b10001011 1
b11 3
b0011011010001110 4
#141
b0111 )
b0000 *
b11 -
b00 .
b00 /
b10001100 1
b00 3
b0000011110001110 4
#142
b0001 *
b01 .
b01 /
b10001101 1
b01 3
b0001011110001110 4
#143
b0010 *
b10 .
b10 /
b10001110 1
b10 3
b0010011110001110 4
#144
b0011 *
b11 .
b11 /
b10001111 1
b11 3
b0011011110001110 4
#145
b1001 (
b0100 )
b0000 *
b01 ,
b00 -
b00 .
b00 /
b10010000 1
b00 3
b0000010010011110 4
#146
b0001 *
b01 .
b01 /
b10010001 1
b01 3
b0001010010011110 4
#147
b0010 *
b10 .
b10 /
b10010010 1
b10 3
b0010010010011110 4
#148
b0011 *
b11 .
b11 /
b10010011 1
b11 3
b0011010010011110 4
#149
b0101 )
b0000 *
b01 -
b00 .
b00 /
b10010100 1
b00 3
b0000010110011110 4
#150
b0001 *
b01 .
b01 /
b10010101 1
b01 3
b0001010110011110 4
#151
b0010 *
b10 .
b10 /
b10010110 1
b10 3
b0010010110011110 4
#152
b0011 *
b11 .
b11 /
b10010111 1
b11 3
b0011010110011110 4
#153
b0110 )
b0000 *
b10 -
b00 .
b00 /
b10011000 1
b00 3
b0000011010011110 4
#154
b0001 *
b01 .
b01 /
b10011001 1
b01 3
b0001011010011110 4
#155
b0010 *
b10 .
b10 /
b10011010 1
b10 3
b0010011010011110 4
#156
b0011 *
b11 .
b11 /
b10011011 1
b11 3
b0011011010011110 4
#157
b0111 )
b0000 *
b11 -
b00 .
b00 /
b10011100 1
b00 3
b0000011110011110 4
#158
b0001 *
b01 .
b01 /
b10011101 1
b01 3
b0001011110011110 4
#159
b0010 *
b10 .
b10 /
b10011110 1
b10 3
b0010011110011110 4
#160
b0011 *
b11 .
b11 /
b10011111 1
b11 3
b0011011110011110 4
#161
b1010 (
b0100 )
b0000 *
b10 ,
b00 -
b00 .
b00 /
b10100000 1
b00 3
b0000010010101110 4
#162
b0001 *
b01 .
b01 /
b10100001 1
b01 3
b0001010010101110 4
#163
b0010 *
b10 .
b10 /
b10100010 1
b10 3
b0010010010101110 4
#164
b0011 *
b11 .
b11 /
b10100011 1
b11 3
b0011010010101110 4
#165
b0101 )
b0000 *
b01 -
b00 .
b00 /
b10100100 1
b00 3
b0000010110101110 4
#166
b0001 *
b01 .
b01 /
b10100101 1
b01 3
b0001010110101110 4
#167
b0010 *
b10 .
b10 /
b10100110 1
b10 3
b0010010110101110 4
#168
b0011 *
b11 .
b11 /
b10100111 1
b11 3
b0011010110101110 4
#169
b0110 )
b0000 *
b10 -
b00 .
b00 /
b10101000 1
b00 3
b0000011010101110 4
#170
b0001 *
b01 .
b01 /
b10101001 1
b01 3
b0001011010101110 4
#171
b0010 *
b10 .
b10 /
b10101010 1
b10 3
b0010011010101110 4
#172
b0011 *
b11 .
b11 /
b10101011 1
b11 3
b0011011010101110 4
#173
b0111 )
b0000 *
b11 -
b00 .
b00 /
b10101100 1
b00 3
b0000011110101110 4
#174
b0001 *
b01 .
b01 /
b10101101 1
b01 3
b0001011110101110 4
#175
b0010 *
b10 .
b10 /
b10101110 1
b10 3
b0010011110101110 4
#176
b0011 *
b11 .
b11 /
b10101111 1
b11 3
b0011011110101110 4
#177
b1011 (
b0100 )
b0000 *
b11 ,
b00 -
b00 .
b00 /
b10110000 1
b00 3
b0000010010111110 4
#178
b0001 *
b01 .
b01 /
b10110001 1
b01 3
b0001010010111110 4
#179
b0010 *
b10 .
b10 /
b10110010 1
b10 3
b0010010010111110 4
#180
b0011 *
b11 .
b11 /
b10110011 1
b11 3
b0011010010111110 4
#181
b0101 )
b0000 *
b01 -
b00 .
b00 /
b10110100 1
b00 3
b0000010110111110 4
#182
b0001 *
b01 .
b01 /
b10110101 1
b01 3
b0001010110111110 4
#183
b0010 *
b10 .
b10 /
b10110110 1
b10 3
b0010010110111110 4
#184
b0011 *
b11 .
b11 /
b10110111 1
b11 3
b0011010110111110 4
#185
b0110 )
b0000 *
b10 -
b00 .
b00 /
b10111000 1
b00 3
b0000011010111110 4
#186
b0001 *
b01 .
b01 /
b10111001 1
b01 3
b0001011010111110 4
#187
b0010 *
b10 .
b10 /
b10111010 1
b10 3
b0010011010111110 4
#188
b0011 *
b11 .
b11 /
b10111011 1
b11 3
b0011011010111110 4
#189
b0111 )
b0000 *
b11 -
b00 .
b00 /
b10111100 1
b00 3
b0000011110111110 4
#190
b0001 *
b01 .
b01 /
b10111101 1
b01 3
b0001011110111110 4
#191
b0010 *
b10 .
b10 /
b10111110 1
b10 3
b0010011110111110 4
#192
b0011 *
b11 .
b11 /
b10111111 1
b11 3
b0011011110111110 4
#193
b1111 '
b1000 (
b0100 )
b0000 *
b11 +
b00 ,
b00 -
b00 .
b00 /
b11000000 1
b00 3
b0000010010001111 4
#194
b0001 *
b01 .
b01 /
b11000001 1
b01 3
b0001010010001111 4
#195
b0010 *
b10 .
b10 /
b11000010 1
b10 3
b0010010010001111 4
#196
b0011 *
b11 .
b11 /
b11000011 1
b11 3
b0011010010001111 4
#197
b0101 )
b0000 *
b01 -
b00 .
b00 /
b11000100 1
b00 3
b0000010110001111 4
#198
b0001 *
b01 .
b01 /
b11000101 1
b01 3
b0001010110001111 4
#199
b0010 *
b10 .
b10 /
b11000110 1
b10 3
b0010010110001111 4
#200
b0011 *
b11 .
b11 /
b11000111 1
b11 3
b0011010110001111 4
#201
b0110 )
b0000 *
b10 -
b00 .
b00 /
b11001000 1
b00 3
b0000011010001111 4
#202
b0001 *
b01 .
b01 /
b11001001 1
b01 3
b0001011010001111 4
#203
b0010 *
b10 .
b10 /
b11001010 1
b10 3
b0010011010001111 4
#204
b0011 *
b11 .
b11 /
b11001011 1
b11 3
b0011011010001111 4
#205
b0111 )
b0000 *
b11 -
b00 .
b00 /
b11001100 1
b00 3
b0000011110001111 4
#206
b0001 *
b01 .
b01 /
b11001101 1
b01 3
b0001011110001111 4
#207
b0010 *
b10 .
b10 /
b11001110 1
b10 3
b0010011110001111 4
#208
b0011 *
b11 .
b11 /
b11001111 1
b11 3
b0011011110001111 4
#209
b1001 (
b0100 )
b0000 *
b01 ,
b00 -
b00 .
b00 /
b11010000 1
b00 3
b0000010010011111 4
#210
b0001 *
b01 .
b01 /
b11010001 1
b01 3
b0001010010011111 4
#211
b0010 *
b10 .
b10 /
b11010010 1
b10 3
b0010010010011111 4
#212
b0011 *
b11 .
b11 /
b11010011 1
b11 3
b0011010010011111 4
#213
b0101 )
b0000 *
b01 -
b00 .
b00 /
b11010100 1
b00 3
b0000010110011111 4
#214
b0001 *
b01 .
b01 /
b11010101 1
b01 3
b0001010110011111 4
#215
b0010 *
b10 .
b10 /
b11010110 1
b10 3
b0010010110011111 4
#216
b0011 *
b11 .
b11 /
b11010111 1
b11 3
b0011010110011111 4
#217
b0110 )
b0000 *
b10 -
b00 .
b00 /
b11011000 1
b00 3
b0000011010011111 4
#218
b0001 *
b01 .
b01 /
b11011001 1
b01 3
b0001011010011111 4
#219
b0010 *
b10 .
b10 /
b11011010 1
b10 3
b0010011010011111 4
#220
b0011 *
b11 .
b11 /
b11011011 1
b11 3
b0011011010011111 4
#221
b0111 )
b0000 *
b11 -
b00 .
b00 /
b11011100 1
b00 3
b0000011110011111 4
#222
b0001 *
b01 .
b01 /
b11011101 1
b01 3
b0001011110011111 4
#223
b0010 *
b10 .
b10 /
b11011110 1
b10 3
b0010011110011111 4
#224
b0011 *
b11 .
b11 /
b11011111 1
b11 3
b0011011110011111 4
#225
b1010 (
b0100 )
b0000 *
b10 ,
b00 -
b00 .
b00 /
b11100000 1
b00 3
b0000010010101111 4
#226
b0001 *
b01 .
b01 /
b11100001 1
b01 3
b0001010010101111 4
#227
b0010 *
b10 .
b10 /
b11100010 1
b10 3
b0010010010101111 4
#228
b0011 *
b11 .
b11 /
b11100011 1
b11 3
b0011010010101111 4
#229
b0101 )
b0000 *
b01 -
b00 .
b00 /
b11100100 1
b00 3
b0000010110101111 4
#230
b0001 *
b01 .
b01 /
b11100101 1
b01 3
b0001010110101111 4
#231
b0010 *
b10 .
b10 /
b11100110 1
b10 3
b0010010110101111 4
#232
b0011 *
b11 .
b11 /
b11100111 1
b11 3
b0011010110101111 4
#233
b0110 )
b0000 *
b10 -
b00 .
b00 /
b11101000 1
b00 3
b0000011010101111 4
#234
b0001 *
b01 .
b01 /
b11101001 1
b01 3
b0001011010101111 4
#235
b0010 *
b10 .
b10 /
b11101010 1
b10 3
b0010011010101111 4
#236
b0011 *
b11 .
b11 /
b11101011 1
b11 3
b0011011010101111 4
#237
b0111 )
b0000 *
b11 -
b00 .
b00 /
b11101100 1
b00 3
b0000011110101111 4
#238
b0001 *
b01 .
b01 /
b11101101 1
b01 3
b0001011110101111 4
#239
b0010 *
b10 .
b10 /
b11101110 1
b10 3
b0010011110101111 4
#240
b0011 *
b11 .
b11 /
b11101111 1
b11 3
b0011011110101111 4
#241
b1011 (
b0100 )
b0000 *
b11 ,
b00 -
b00 .
b00 /
b11110000 1
b00 3
b0000010010111111 4
#242
b0001 *
b01 .
b01 /
b11110001 1
b01 3
b0001010010111111 4
#243
b0010 *
b10 .
b10 /
b11110010 1
b10 3
b0010010010111111 4
#244
b0011 *
b11 .
b11 /
b11110011 1
b11 3
b0011010010111111 4
#245
b0101 )
b0000 *
b01 -
b00 .
b00 /
b11110100 1
b00 3
b0000010110111111 4
#246
b0001 *
b01 .
b01 /
b11110101 1
b01 3
b0001010110111111 4
#247
b0010 *
b10 .
b10 /
b11110110 1
b10 3
b0010010110111111 4
#248
b0011 *
b11 .
b11 /
b11110111 1
b11 3
b0011010110111111 4
#249
b0110 )
b0000 *
b10 -
b00 .
b00 /
b11111000 1
b00 3
b0000011010111111 4
#250
b0001 *
b01 .
b01 /
b11111001 1
b01 3
b0001011010111111 4
#251
b0010 *
b10 .
b10 /
b11111010 1
b10 3
b0010011010111111 4
#252
b0011 *
b11 .
b11 /
b11111011 1
b11 3
b0011011010111111 4
#253
b0111 )
b0000 *
b11 -
b00 .
b00 /
b11111100 1
b00 3
b0000011110111111 4
#254
b0001 *
b01 .
b01 /
b11111101 1
b01 3
b0001011110111111 4
#255
b0010 *
b10 .
b10 /
b11111110 1
b10 3
b0010011110111111 4
#256
b0011 *
b11 .
b11 /
b11111111 1
b11 3
b0011011110111111 4
#257
b1100 '
b1000 (
b0100 )
b0000 *
b00 +
b00 ,
b00 -
b00 .
b00 /
b00000000 1
b01 2
b00 3
b0000010010001100 4
#258
b0001 *
b01 .
b00000001 1
b0001010010001100 4
#259
b0010 *
b10 .
b00000010 1
b0010010010001100 4
#260
b0011 *
b11 .
b00000011 1
b0011010010001100 4
#261
b0101 )
b0000 *
b01 -
b00 .
b01 /
b00000100 1
b01 3
b0000010110001100 4
#262
b0001 *
b01 .
b00000101 1
b0001010110001100 4
#263
b0010 *
b10 .
b00000110 1
b0010010110001100 4
#264
b0011 *
b11 .
b00000111 1
b0011010110001100 4
#265
b0110 )
b0000 *
b10 -
b00 .
b10 /
b00001000 1
b10 3
b0000011010001100 4
#266
b0001 *
b01 .
b00001001 1
b0001011010001100 4
#267
b0010 *
b10 .
b00001010 1
b0010011010001100 4
#268
b0011 *
b11 .
b00001011 1
b0011011010001100 4
#269
b0111 )
b0000 *
b11 -
b00 .
b11 /
b00001100 1
b11 3
b0000011110001100 4
#270
b0001 *
b01 .
b00001101 1
b0001011110001100 4
#271
b0010 *
b10 .
b00001110 1
b0010011110001100 4
#272
b0011 *
b11 .
b00001111 1
b0011011110001100 4
#273
b1001 (
b0100 )
b0000 *
b01 ,
b00 -
b00 .
b00 /
b00010000 1
b00 3
b0000010010011100 4
#274
b0001 *
b01 .
b00010001 1
b0001010010011100 4
#275
b0010 *
b10 .
b00010010 1
b0010010010011100 4
#276
b0011 *
b11 .
b00010011 1
b0011010010011100 4
#277
b0101 )
b0000 *
b01 -
b00 .
b01 /
b00010100 1
b01 3
b0000010110011100 4
#278
b0001 *
b01 .
b00010101 1
b0001010110011100 4
#279
b0010 *
b10 .
b00010110 1
b0010010110011100 4
#280
b0011 *
b11 .
b00010111 1
b0011010110011100 4
#281
b0110 )
b0000 *
b10 -
b00 .
b10 /
b00011000 1
b10 3
b0000011010011100 4
#282
b0001 *
b01 .
b00011001 1
b0001011010011100 4
#283
b0010 *
b10 .
b00011010 1
b0010011010011100 4
#284
b0011 *
b11 .
b00011011 1
b0011011010011100 4
#285
b0111 )
b0000 *
b11 -
b00 .
b11 /
b00011100 1
b11 3
b0000011110011100 4
#286
b0001 *
b01 .
b00011101 1
b0001011110011100 4
#287
b0010 *
b10 .
b00011110 1
b0010011110011100 4
#288
b0011 *
b11 .
b00011111 1
b0011011110011100 4
#289
b1010 (
b0100 )
b0000 *
b10 ,
b00 -
b00 .
b00 /
b00100000 1
b00 3
b0000010010101100 4
#290
b0001 *
b01 .
b00100001 1
b0001010010101100 4
#291
b0010 *
b10 .
b00100010 1
b0010010010101100 4
#292
b0011 *
b11 .
b00100011 1
b0011010010101100 4
#293
b0101 )
b0000 *
b01 -
b00 .
b01 /
b00100100 1
b01 3
b0000010110101100 4
#294
b0001 *
b01 .
b00100101 1
b0001010110101100 4
#295
b0010 *
b10 .
b00100110 1
b0010010110101100 4
#296
b0011 *
b11 .
b00100111 1
b0011010110101100 4
#297
b0110 )
b0000 *
b10 -
b00 .
b10 /
b00101000 1
b10 3
b0000011010101100 4
#298
b0001 *
b01 .
b00101001 1
b0001011010101100 4
#299
b0010 *
b10 .
b00101010 1
b0010011010101100 4
#300
b0011 *
b11 .
b00101011 1
b0011011010101100 4
#301
b0111 )
b0000 *
b11 -
b00 .
b11 /
b00101100 1
b11 3
b0000011110101100 4
#302
b0001 *
b01 .
b00101101 1
b0001011110101100 4
#303
b0010 *
b10 .
b00101110 1
b0010011110101100 4
#304
b0011 *
b11 .
b00101111 1
b0011011110101100 4
#305
b1011 (
b0100 )
b0000 *
b11 ,
b00 -
b00 .
b00 /
b00110000 1
b00 3
b0000010010111100 4
#306
b0001 *
b01 .
b00110001 1
b0001010010111100 4
#307
b0010 *
b10 .
b00110010 1
b0010010010111100 4
#308
b0011 *
b11 .
b00110011 1
b0011010010111100 4
#309
b0101 )
b0000 *
b01 -
b00 .
b01 /
b00110100 1
b01 3
b0000010110111100 4
#310
b0001 *
b01 .
b00110101 1
b0001010110111100 4
#311
b0010 *
b10 .
b00110110 1
b0010010110111100 4
#312
b0011 *
b11 .
b00110111 1
b0011010110111100 4
#313
b0110 )
b0000 *
b10 -
b00 .
b10 /
b00111000 1
b10 3
b0000011010111100 4
#314
b0001 *
b01 .
b00111001 1
b0001011010111100 4
#315
b0010 *
b10 .
b00111010 1
b0010011010111100 4
#316
b0011 *
b11 .
b00111011 1
b0011011010111100 4
#317
b0111 )
b0000 *
b11 -
b00 .
b11 /
b00111100 1
b11 3
b0000011110111100 4
#318
b0001 *
b01 .
b00111101 1
b0001011110111100 4
#319
b0010 *
b10 .
b00111110 1
b0010011110111100 4
#320
b0011 *
b11 .
b00111111 1
b0011011110111100 4
#321
b1101 '
b1000 (
b0100 )
b0000 *
b01 +
b00 ,
b00 -
b00 .
b00 /
b01000000 1
b00 3
b0000010010001101 4
#322
b0001 *
b01 .
b01000001 1
b0001010010001101 4
