npc/sim.vcd
$version Generated by VerilatedVcd $end
$timescale 1ps $end

 $scope module TOP $end
  $var wire 32 e EXaddr [31:0] $end
  $var wire 32 b addr_read_data [31:0] $end
  $var wire 32 d addr_write_data [31:0] $end
  $var wire  1 f addr_write_enable $end
  $var wire  1 ` cpu_clk $end
  $var wire  1 a cpu_rs $end
  $var wire 32 c npc [31:0] $end
  $scope module ysyx_24090003_cpu $end
   $var wire 32 e EXaddr [31:0] $end
   $var wire 32 ' EXnpc [31:0] $end
   $var wire  5 ) EXrd [4:0] $end
   $var wire 32 ( EXspc [31:0] $end
   $var wire 32 b addr_read_data [31:0] $end
   $var wire 32 d addr_write_data [31:0] $end
   $var wire  1 f addr_write_enable $end
   $var wire  1 ` cpu_clk $end
   $var wire  1 a cpu_rs $end
   $var wire  3 U funct [2:0] $end
   $var wire 32 O imm [31:0] $end
   $var wire 32 P inst [31:0] $end
   $var wire 32 c npc [31:0] $end
   $var wire  1 % npc_write_enable $end
   $var wire  7 T opcode [6:0] $end
   $var wire 32 V pc [31:0] $end
   $var wire  5 S rd [4:0] $end
   $var wire 32 J reg_read_data1 [31:0] $end
   $var wire 32 K reg_read_data2 [31:0] $end
   $var wire 32 # reg_write_data [31:0] $end
   $var wire  1 $ reg_write_enable $end
   $var wire  5 Q rs1 [4:0] $end
   $var wire  5 R rs2 [4:0] $end
   $var wire  1 & spc_write_enable $end
   $scope module ysyx_24090003_EXU $end
    $var wire 32 e EXaddr [31:0] $end
    $var wire 32 h EXaddr_r [31:0] $end
    $var wire 32 ' EXnpc [31:0] $end
    $var wire 32 V EXnpc_r [31:0] $end
    $var wire  5 ) EXrd [4:0] $end
    $var wire  5 Z EXrd_r [4:0] $end
    $var wire 32 ( EXspc [31:0] $end
    $var wire 32 V EXspc_r [31:0] $end
    $var wire 32 d addr_write_data [31:0] $end
    $var wire  1 i addr_write_data_enable_r $end
    $var wire 32 h addr_write_data_r [31:0] $end
    $var wire  1 f addr_write_enable $end
    $var wire  3 X alu_control [2:0] $end
    $var wire 32 N alu_result [31:0] $end
    $var wire  1 ` cpu_clk $end
    $var wire  3 U funct [2:0] $end
    $var wire 32 O imm [31:0] $end
    $var wire  1 % npc_write_enable $end
    $var wire  1 i npc_write_enable_r $end
    $var wire  7 T opcode [6:0] $end
    $var wire 32 L operand1 [31:0] $end
    $var wire 32 L operand1_r [31:0] $end
    $var wire 32 W operand2 [31:0] $end
    $var wire 32 W operand2_r [31:0] $end
    $var wire 32 V pc [31:0] $end
    $var wire  5 S rd [4:0] $end
    $var wire 32 J reg_read_data1 [31:0] $end
    $var wire 32 K reg_read_data2 [31:0] $end
    $var wire 32 # reg_write_data [31:0] $end
    $var wire  1 Y reg_write_data_enable_r $end
    $var wire 32 M reg_write_data_r [31:0] $end
    $var wire  1 $ reg_write_enable $end
    $var wire  1 & spc_write_enable $end
    $var wire  1 i spc_write_enable_r $end
    $scope module ysyx_24090003_alu $end
     $var wire  3 X alu_control [2:0] $end
     $var wire 32 L operand1 [31:0] $end
     $var wire 32 W operand2 [31:0] $end
     $var wire 32 N result [31:0] $end
    $upscope $end
   $upscope $end
   $scope module ysyx_24090003_IDU $end
    $var wire  3 U funct [2:0] $end
    $var wire 32 O imm [31:0] $end
    $var wire 32 P inst [31:0] $end
    $var wire  7 T opcode [6:0] $end
    $var wire  5 S rd [4:0] $end
    $var wire  5 Q rs1 [4:0] $end
    $var wire  5 R rs2 [4:0] $end
    $scope module ysyx_24090003_immT $end
     $var wire  3 j Itype [2:0] $end
     $var wire 32 O imm [31:0] $end
     $var wire 32 \ immB [31:0] $end
     $var wire 32 O immI [31:0] $end
     $var wire 32 ^ immJ [31:0] $end
     $var wire 32 [ immS [31:0] $end
     $var wire 32 ] immU [31:0] $end
     $var wire 32 P inst [31:0] $end
     $scope module ysyx_24090003_instType $end
      $var wire  3 j Itype [2:0] $end
      $var wire  7 T inst [6:0] $end
     $upscope $end
    $upscope $end
   $upscope $end
   $scope module ysyx_24090003_IFU $end
    $var wire 32 ' EXnpc [31:0] $end
    $var wire 32 ( EXspc [31:0] $end
    $var wire 32 b addr_read_data [31:0] $end
    $var wire  1 ` cpu_clk $end
    $var wire  1 a cpu_rs $end
    $var wire 32 P inst [31:0] $end
    $var wire 32 P inst_r [31:0] $end
    $var wire 32 c npc [31:0] $end
    $var wire 32 _ npc_r [31:0] $end
    $var wire  1 % npc_write_enable $end
    $var wire 32 V pc [31:0] $end
    $var wire 32 V pc_r [31:0] $end
    $var wire 32 g spc_r [31:0] $end
    $var wire  1 & spc_write_enable $end
   $upscope $end
   $scope module ysyx_24090003_regcontrol $end
    $var wire  5 ) EXrd [4:0] $end
    $var wire  1 ` cpu_clk $end
    $var wire 32 J reg_read_data1 [31:0] $end
    $var wire 32 K reg_read_data2 [31:0] $end
    $var wire 32 # reg_write_data [31:0] $end
    $var wire  1 $ reg_write_enable $end
    $var wire 32 * registers[0] [31:0] $end
    $var wire 32 4 registers[10] [31:0] $end
    $var wire 32 5 registers[11] [31:0] $end
    $var wire 32 6 registers[12] [31:0] $end
    $var wire 32 7 registers[13] [31:0] $end
    $var wire 32 8 registers[14] [31:0] $end
    $var wire 32 9 registers[15] [31:0] $end
    $var wire 32 : registers[16] [31:0] $end
    $var wire 32 ; registers[17] [31:0] $end
    $var wire 32 < registers[18] [31:0] $end
    $var wire 32 = registers[19] [31:0] $end
    $var wire 32 + registers[1] [31:0] $end
    $var wire 32 > registers[20] [31:0] $end
    $var wire 32 ? registers[21] [31:0] $end
    $var wire 32 @ registers[22] [31:0] $end
    $var wire 32 A registers[23] [31:0] $end
    $var wire 32 B registers[24] [31:0] $end
    $var wire 32 C registers[25] [31:0] $end
    $var wire 32 D registers[26] [31:0] $end
    $var wire 32 E registers[27] [31:0] $end
    $var wire 32 F registers[28] [31:0] $end
    $var wire 32 G registers[29] [31:0] $end
    $var wire 32 , registers[2] [31:0] $end
    $var wire 32 H registers[30] [31:0] $end
    $var wire 32 I registers[31] [31:0] $end
    $var wire 32 - registers[3] [31:0] $end
    $var wire 32 . registers[4] [31:0] $end
    $var wire 32 / registers[5] [31:0] $end
    $var wire 32 0 registers[6] [31:0] $end
    $var wire 32 1 registers[7] [31:0] $end
    $var wire 32 2 registers[8] [31:0] $end
    $var wire 32 3 registers[9] [31:0] $end
    $var wire  5 Q rs1 [4:0] $end
    $var wire  5 R rs2 [4:0] $end
   $upscope $end
  $upscope $end
 $upscope $end
$enddefinitions $end


#0
b00000000000000000000000000000000 #
0$
0%
0&
b00000000000000000000000000000000 '
b00000000000000000000000000000000 (
b00000 )
b00000000000000000000000000000000 *
b00000000000000000000000000000000 +
b00000000000000000000000000000000 ,
b00000000000000000000000000000000 -
b00000000000000000000000000000000 .
b00000000000000000000000000000000 /
b00000000000000000000000000000000 0
b00000000000000000000000000000000 1
b00000000000000000000000000000000 2
b00000000000000000000000000000000 3
b00000000000000000000000000000000 4
b00000000000000000000000000000000 5
b00000000000000000000000000000000 6
b00000000000000000000000000000000 7
b00000000000000000000000000000000 8
b00000000000000000000000000000000 9
b00000000000000000000000000000000 :
b00000000000000000000000000000000 ;
b00000000000000000000000000000000 <
b00000000000000000000000000000000 =
b00000000000000000000000000000000 >
b00000000000000000000000000000000 ?
b00000000000000000000000000000000 @
b00000000000000000000000000000000 A
b00000000000000000000000000000000 B
b00000000000000000000000000000000 C
b00000000000000000000000000000000 D
b00000000000000000000000000000000 E
b00000000000000000000000000000000 F
b00000000000000000000000000000000 G
b00000000000000000000000000000000 H
b00000000000000000000000000000000 I
b00000000000000000000000000000000 J
b00000000000000000000000000000000 K
b00000000000000000000000000000000 L
b00000000000000000000000000000000 M
b00000000000000000000000000000000 N
b00000000000000000000000000000000 O
b00000000000000000000000000000000 P
b00000 Q
b00000 R
b00000 S
b0000000 T
b000 U
b00000000000000000000000000000000 V
b00000000000000000000000000000000 W
b000 X
0Y
b00000 Z
b00000000000000000000000000000000 [
b00000000000000000000000000000000 \
b00000000000000000000000000000000 ]
b00000000000000000000000000000000 ^
b00000000000000000000000000000000 _
1`
1a
b00000000000100001000000010010011 b
b00000000000000000000000000000000 c
b00000000000000000000000000000000 d
b00000000000000000000000000000000 e
0f
b00000000000000000000000000000000 g
b00000000000000000000000000000000 h
0i
b001 j
#1
0`
b00000000000000000000000000000000 b
#2
b10000000000000000000000000000000 V
b10000000000000000000000000000000 _
1`
b10000000000000000000000000000000 c
b10000000000000000000000000000000 g
#3
0`
0a
b00000000000100001000000010010011 b
#4
b10000000000000000000000000000000 '
b10000000000000000000000000000000 (
b10000000000000000000000000000100 _
1`
b00000000000000000000000000000000 b
b10000000000000000000000000000100 c
b00000000000000000000000000000000 g
#5
0`
#6
b00000000000000000000000000000001 M
b00000000000000000000000000000001 N
b00000000000000000000000000000001 O
b00000000000100001000000010010011 P
b00001 Q
b00001 R
b00001 S
b0010011 T
b10000000000000000000000000000100 V
b00000000000000000000000000000001 W
1Y
b00001 Z
b00000000000000000000000000000001 [
b00000000000000000000100000000000 \
b00000000000100001000000000000000 ]
b00000000000000001000100000000000 ^
1`
b00000000000100001000000010010011 b
#7
0`
b00000000000000000000000000000000 b
#8
b00000000000000000000000000000001 #
1$
b10000000000000000000000000000100 '
b10000000000000000000000000000100 (
b00001 )
b00000000000000000000000000000000 M
b00000000000000000000000000000000 N
b00000000000000000000000000000000 O
b00000000000000000000000000000000 P
b00000 Q
b00000 R
b00000 S
b0000000 T
b00000000000000000000000000000000 W
0Y
b00000 Z
b00000000000000000000000000000000 [
b00000000000000000000000000000000 \
b00000000000000000000000000000000 ]
b00000000000000000000000000000000 ^
b10000000000000000000000000001000 _
1`
b10000000000000000000000000001000 c
#9
0`
b00000000000100001000000010010011 b
#10
b00000000000000000000000000000000 #
0$
b00000 )
b00000000000000000000000000000001 +
b10000000000000000000000000001000 V
1`
b00000000000000000000000000000000 b
#11
0`
#12
b10000000000000000000000000001000 '
b10000000000000000000000000001000 (
b00000000000000000000000000000001 J
b00000000000000000000000000000001 K
b00000000000000000000000000000001 L
b00000000000000000000000000000010 M
b00000000000000000000000000000010 N
b00000000000000000000000000000001 O
b00000000000100001000000010010011 P
b00001 Q
b00001 R
b00001 S
b0010011 T
b00000000000000000000000000000001 W
1Y
b00001 Z
b00000000000000000000000000000001 [
b00000000000000000000100000000000 \
b00000000000100001000000000000000 ]
b00000000000000001000100000000000 ^
b10000000000000000000000000001100 _
1`
b00000000000100001000000010010011 b
b10000000000000000000000000001100 c
#13
0`
b00000000000000000000000000000000 b
#14
b00000000000000000000000000000010 #
1$
b00001 )
b00000000000000000000000000000000 J
b00000000000000000000000000000000 K
b00000000000000000000000000000000 L
b00000000000000000000000000000000 M
b00000000000000000000000000000000 N
b00000000000000000000000000000000 O
b00000000000000000000000000000000 P
b00000 Q
b00000 R
b00000 S
b0000000 T
b10000000000000000000000000001100 V
b00000000000000000000000000000000 W
0Y
b00000 Z
b00000000000000000000000000000000 [
b00000000000000000000000000000000 \
b00000000000000000000000000000000 ]
b00000000000000000000000000000000 ^
1`
#15
0`
b00000000000100001000000010010011 b
#16
b00000000000000000000000000000000 #
0$
b10000000000000000000000000001100 '
b10000000000000000000000000001100 (
b00000 )
b00000000000000000000000000000010 +
b10000000000000000000000000010000 _
1`
b00000000000000000000000000000000 b
b10000000000000000000000000010000 c
#17
0`
#18
b00000000000000000000000000000010 J
b00000000000000000000000000000010 K
b00000000000000000000000000000010 L
b00000000000000000000000000000011 M
b00000000000000000000000000000011 N
b00000000000000000000000000000001 O
b00000000000100001000000010010011 P
b00001 Q
b00001 R
b00001 S
b0010011 T
b10000000000000000000000000010000 V
b00000000000000000000000000000001 W
1Y
b00001 Z
b00000000000000000000000000000001 [
b00000000000000000000100000000000 \
b00000000000100001000000000000000 ]
b00000000000000001000100000000000 ^
1`
b00000000000100001000000010010011 b
#19
0`
b00000000000000000000000000000000 b
#20
b00000000000000000000000000000011 #
1$
b10000000000000000000000000010000 '
b10000000000000000000000000010000 (
b00001 )
b00000000000000000000000000000000 J
b00000000000000000000000000000000 K
b00000000000000000000000000000000 L
b00000000000000000000000000000000 M
b00000000000000000000000000000000 N
b00000000000000000000000000000000 O
b00000000000000000000000000000000 P
b00000 Q
b00000 R
b00000 S
b0000000 T
b00000000000000000000000000000000 W
0Y
b00000 Z
b00000000000000000000000000000000 [
b00000000000000000000000000000000 \
b00000000000000000000000000000000 ]
b00000000000000000000000000000000 ^
b10000000000000000000000000010100 _
1`
b10000000000000000000000000010100 c
#21
0`
b00000000000100001000000010010011 b
#22
b00000000000000000000000000000000 #
0$
b00000 )
b00000000000000000000000000000011 +
b10000000000000000000000000010100 V
1`
b00000000000000000000000000000000 b
#23
0`
#24
b10000000000000000000000000010100 '
b10000000000000000000000000010100 (
b00000000000000000000000000000011 J
b00000000000000000000000000000011 K
b00000000000000000000000000000011 L
b00000000000000000000000000000100 M
b00000000000000000000000000000100 N
b00000000000000000000000000000001 O
b00000000000100001000000010010011 P
b00001 Q
b00001 R
b00001 S
b0010011 T
b00000000000000000000000000000001 W
1Y
b00001 Z
b00000000000000000000000000000001 [
b00000000000000000000100000000000 \
b00000000000100001000000000000000 ]
b00000000000000001000100000000000 ^
b10000000000000000000000000011000 _
1`
b00000000000100001000000010010011 b
b10000000000000000000000000011000 c
#25
0`
b00000000000000000000000000000000 b
#26
b00000000000000000000000000000100 #
1$
b00001 )
b00000000000000000000000000000000 J
b00000000000000000000000000000000 K
b00000000000000000000000000000000 L
b00000000000000000000000000000000 M
b00000000000000000000000000000000 N
b00000000000000000000000000000000 O
b00000000000000000000000000000000 P
b00000 Q
b00000 R
b00000 S
b0000000 T
b10000000000000000000000000011000 V
b00000000000000000000000000000000 W
0Y
b00000 Z
b00000000000000000000000000000000 [
b00000000000000000000000000000000 \
b00000000000000000000000000000000 ]
b00000000000000000000000000000000 ^
1`
#27
0`
b00000000000100001000000010010011 b
#28
b00000000000000000000000000000000 #
0$
b10000000000000000000000000011000 '
b10000000000000000000000000011000 (
b00000 )
b00000000000000000000000000000100 +
b10000000000000000000000000011100 _
1`
b00000000000000000000000000000000 b
b10000000000000000000000000011100 c
#29
0`
#30
b00000000000000000000000000000100 J
b00000000000000000000000000000100 K
b00000000000000000000000000000100 L
b00000000000000000000000000000101 M
b00000000000000000000000000000101 N
b00000000000000000000000000000001 O
b00000000000100001000000010010011 P
b00001 Q
b00001 R
b00001 S
b0010011 T
b10000000000000000000000000011100 V
b00000000000000000000000000000001 W
1Y
b00001 Z
b00000000000000000000000000000001 [
b00000000000000000000100000000000 \
b00000000000100001000000000000000 ]
b00000000000000001000100000000000 ^
1`
b00000000000100001000000010010011 b
#31
0`
b00000000000000000000000000000000 b
#32
b00000000000000000000000000000101 #
1$
b10000000000000000000000000011100 '
b10000000000000000000000000011100 (
b00001 )
b00000000000000000000000000000000 J
b00000000000000000000000000000000 K
b00000000000000000000000000000000 L
b00000000000000000000000000000000 M
b00000000000000000000000000000000 N
b00000000000000000000000000000000 O
b00000000000000000000000000000000 P
b00000 Q
b00000 R
b00000 S
b0000000 T
b00000000000000000000000000000000 W
0Y
b00000 Z
b00000000000000000000000000000000 [
b00000000000000000000000000000000 \
b00000000000000000000000000000000 ]
b00000000000000000000000000000000 ^
b10000000000000000000000000100000 _
1`
b10000000000000000000000000100000 c
#33
0`
b00000000000100001000000010010011 b
#34
b00000000000000000000000000000000 #
0$
b00000 )
b00000000000000000000000000000101 +
b10000000000000000000000000100000 V
1`
b00000000000000000000000000000000 b
#35
0`
#36
b10000000000000000000000000100000 '
b10000000000000000000000000100000 (
b00000000000000000000000000000101 J
b00000000000000000000000000000101 K
b00000000000000000000000000000101 L
b00000000000000000000000000000110 M
b00000000000000000000000000000110 N
b00000000000000000000000000000001 O
b00000000000100001000000010010011 P
b00001 Q
b00001 R
b00001 S
b0010011 T
b00000000000000000000000000000001 W
1Y
b00001 Z
b00000000000000000000000000000001 [
b00000000000000000000100000000000 \
b00000000000100001000000000000000 ]
b00000000000000001000100000000000 ^
b10000000000000000000000000100100 _
1`
b00000000000100001000000010010011 b
b10000000000000000000000000100100 c
#37
0`
b00000000000000000000000000000000 b
#38
b00000000000000000000000000000110 #
1$
b00001 )
b00000000000000000000000000000000 J
b00000000000000000000000000000000 K
b00000000000000000000000000000000 L
b00000000000000000000000000000000 M
b00000000000000000000000000000000 N
b00000000000000000000000000000000 O
b00000000000000000000000000000000 P
b00000 Q
b00000 R
b00000 S
b0000000 T
b10000000000000000000000000100100 V
b00000000000000000000000000000000 W
0Y
b00000 Z
b00000000000000000000000000000000 [
b00000000000000000000000000000000 \
b00000000000000000000000000000000 ]
b00000000000000000000000000000000 ^
1`
#39
0`
b00000000000100001000000010010011 b
#40
b00000000000000000000000000000000 #
0$
b10000000000000000000000000100100 '
b10000000000000000000000000100100 (
b00000 )
b00000000000000000000000000000110 +
b10000000000000000000000000101000 _
1`
b00000000000000000000000000000000 b
b10000000000000000000000000101000 c
#41
0`
#42
b00000000000000000000000000000110 J
b00000000000000000000000000000110 K
b00000000000000000000000000000110 L
b00000000000000000000000000000111 M
b00000000000000000000000000000111 N
b00000000000000000000000000000001 O
b00000000000100001000000010010011 P
b00001 Q
b00001 R
b00001 S
b0010011 T
b10000000000000000000000000101000 V
b00000000000000000000000000000001 W
1Y
b00001 Z
b00000000000000000000000000000001 [
b00000000000000000000100000000000 \
b00000000000100001000000000000000 ]
b00000000000000001000100000000000 ^
1`
b00000000000100001000000010010011 b
#43
0`
b00000000000000000000000000000000 b
#44
b00000000000000000000000000000111 #
1$
b10000000000000000000000000101000 '
b10000000000000000000000000101000 (
b00001 )
b00000000000000000000000000000000 J
b00000000000000000000000000000000 K
b00000000000000000000000000000000 L
b00000000000000000000000000000000 M
b00000000000000000000000000000000 N
b00000000000000000000000000000000 O
b00000000000000000000000000000000 P
b00000 Q
b00000 R
b00000 S
b0000000 T
b00000000000000000000000000000000 W
0Y
b00000 Z
b00000000000000000000000000000000 [
b00000000000000000000000000000000 \
b00000000000000000000000000000000 ]
b00000000000000000000000000000000 ^
b10000000000000000000000000101100 _
1`
b10000000000000000000000000101100 c
#45
0`
b00000000000100001000000010010011 b
#46
b00000000000000000000000000000000 #
0$
b00000 )
b00000000000000000000000000000111 +
b10000000000000000000000000101100 V
1`
b00000000000000000000000000000000 b
#47
0`
#48
b10000000000000000000000000101100 '
b10000000000000000000000000101100 (
b00000000000000000000000000000111 J
b00000000000000000000000000000111 K
b00000000000000000000000000000111 L
b00000000000000000000000000001000 M
b00000000000000000000000000001000 N
b00000000000000000000000000000001 O
b00000000000100001000000010010011 P
b00001 Q
b00001 R
b00001 S
b0010011 T
b00000000000000000000000000000001 W
1Y
b00001 Z
b00000000000000000000000000000001 [
b00000000000000000000100000000000 \
b00000000000100001000000000000000 ]
b00000000000000001000100000000000 ^
b10000000000000000000000000110000 _
1`
b00000000000100001000000010010011 b
b10000000000000000000000000110000 c
#49
0`
b00000000000000000000000000000000 b
#50
b00000000000000000000000000001000 #
1$
b00001 )
b00000000000000000000000000000000 J
b00000000000000000000000000000000 K
b00000000000000000000000000000000 L
b00000000000000000000000000000000 M
b00000000000000000000000000000000 N
b00000000000000000000000000000000 O
b00000000000000000000000000000000 P
b00000 Q
b00000 R
b00000 S
b0000000 T
b10000000000000000000000000110000 V
b00000000000000000000000000000000 W
0Y
b00000 Z
b00000000000000000000000000000000 [
b00000000000000000000000000000000 \
b00000000000000000000000000000000 ]
b00000000000000000000000000000000 ^
1`
#51
0`
b00000000000100001000000010010011 b
#52
b00000000000000000000000000000000 #
0$
b10000000000000000000000000110000 '
b10000000000000000000000000110000 (
b00000 )
b00000000000000000000000000001000 +
b10000000000000000000000000110100 _
1`
b00000000000000000000000000000000 b
b10000000000000000000000000110100 c
#53
0`
#54
b00000000000000000000000000001000 J
b00000000000000000000000000001000 K
b00000000000000000000000000001000 L
b00000000000000000000000000001001 M
b00000000000000000000000000001001 N
b00000000000000000000000000000001 O
b00000000000100001000000010010011 P
b00001 Q
b00001 R
b00001 S
b0010011 T
b10000000000000000000000000110100 V
b00000000000000000000000000000001 W
1Y
b00001 Z
b00000000000000000000000000000001 [
b00000000000000000000100000000000 \
b00000000000100001000000000000000 ]
b00000000000000001000100000000000 ^
1`
b00000000000100001000000010010011 b
#55
0`
b00000000000000000000000000000000 b
#56
b00000000000000000000000000001001 #
1$
b10000000000000000000000000110100 '
b10000000000000000000000000110100 (
b00001 )
b00000000000000000000000000000000 J
b00000000000000000000000000000000 K
b00000000000000000000000000000000 L
b00000000000000000000000000000000 M
b00000000000000000000000000000000 N
b00000000000000000000000000000000 O
b00000000000000000000000000000000 P
b00000 Q
b00000 R
b00000 S
b0000000 T
b00000000000000000000000000000000 W
0Y
b00000 Z
b00000000000000000000000000000000 [
b00000000000000000000000000000000 \
b00000000000000000000000000000000 ]
b00000000000000000000000000000000 ^
b10000000000000000000000000111000 _
1`
b10000000000000000000000000111000 c
#57
0`
b00000000000100001000000010010011 b
#58
b00000000000000000000000000000000 #
0$
b00000 )
b00000000000000000000000000001001 +
b10000000000000000000000000111000 V
1`
b00000000000000000000000000000000 b
#59
0`
#60
b10000000000000000000000000111000 '
b10000000000000000000000000111000 (
b00000000000000000000000000001001 J
b00000000000000000000000000001001 K
b00000000000000000000000000001001 L
b00000000000000000000000000001010 M
b00000000000000000000000000001010 N
b00000000000000000000000000000001 O
b00000000000100001000000010010011 P
b00001 Q
b00001 R
b00001 S
b0010011 T
b00000000000000000000000000000001 W
1Y
b00001 Z
b00000000000000000000000000000001 [
b00000000000000000000100000000000 \
b00000000000100001000000000000000 ]
b00000000000000001000100000000000 ^
b10000000000000000000000000111100 _
1`
b00000000000100001000000010010011 b
b10000000000000000000000000111100 c
#61
0`
b00000000000000000000000000000000 b
#62
b00000000000000000000000000001010 #
1$
b00001 )
b00000000000000000000000000000000 J
b00000000000000000000000000000000 K
b00000000000000000000000000000000 L
b00000000000000000000000000000000 M
b00000000000000000000000000000000 N
b00000000000000000000000000000000 O
b00000000000000000000000000000000 P
b00000 Q
b00000 R
b00000 S
b0000000 T
b10000000000000000000000000111100 V
b00000000000000000000000000000000 W
0Y
b00000 Z
b00000000000000000000000000000000 [
b00000000000000000000000000000000 \
b00000000000000000000000000000000 ]
b00000000000000000000000000000000 ^
1`
#63
0`
b00000000000100001000000010010011 b
#64
b00000000000000000000000000000000 #
0$
b10000000000000000000000000111100 '
b10000000000000000000000000111100 (
b00000 )
b00000000000000000000000000001010 +
b10000000000000000000000001000000 _
1`
b00000000000000000000000000000000 b
b10000000000000000000000001000000 c
#65
0`
#66
b00000000000000000000000000001010 J
b00000000000000000000000000001010 K
b00000000000000000000000000001010 L
b00000000000000000000000000001011 M
b00000000000000000000000000001011 N
b00000000000000000000000000000001 O
b00000000000100001000000010010011 P
b00001 Q
b00001 R
b00001 S
b0010011 T
b10000000000000000000000001000000 V
b00000000000000000000000000000001 W
1Y
b00001 Z
b00000000000000000000000000000001 [
b00000000000000000000100000000000 \
b00000000000100001000000000000000 ]
b00000000000000001000100000000000 ^
1`
b00000000000100001000000010010011 b
#67
0`
b00000000000000000000000000000000 b
#68
b00000000000000000000000000001011 #
1$
b10000000000000000000000001000000 '
b10000000000000000000000001000000 (
b00001 )
b00000000000000000000000000000000 J
b00000000000000000000000000000000 K
b00000000000000000000000000000000 L
b00000000000000000000000000000000 M
b00000000000000000000000000000000 N
b00000000000000000000000000000000 O
b00000000000000000000000000000000 P
b00000 Q
b00000 R
b00000 S
b0000000 T
b00000000000000000000000000000000 W
0Y
b00000 Z
b00000000000000000000000000000000 [
b00000000000000000000000000000000 \
b00000000000000000000000000000000 ]
b00000000000000000000000000000000 ^
b10000000000000000000000001000100 _
1`
b10000000000000000000000001000100 c
#69
0`
b00000000000100001000000010010011 b
#70
b00000000000000000000000000000000 #
0$
b00000 )
b00000000000000000000000000001011 +
b10000000000000000000000001000100 V
1`
b00000000000000000000000000000000 b
#71
0`
#72
b10000000000000000000000001000100 '
b10000000000000000000000001000100 (
b00000000000000000000000000001011 J
b00000000000000000000000000001011 K
b00000000000000000000000000001011 L
b00000000000000000000000000001100 M
b00000000000000000000000000001100 N
b00000000000000000000000000000001 O
b00000000000100001000000010010011 P
b00001 Q
b00001 R
b00001 S
b0010011 T
b00000000000000000000000000000001 W
1Y
b00001 Z
b00000000000000000000000000000001 [
b00000000000000000000100000000000 \
b00000000000100001000000000000000 ]
b00000000000000001000100000000000 ^
b10000000000000000000000001001000 _
1`
b00000000000100001000000010010011 b
b10000000000000000000000001001000 c
#73
0`
b00000000000000000000000000000000 b
#74
b00000000000000000000000000001100 #
1$
b00001 )
b00000000000000000000000000000000 J
b00000000000000000000000000000000 K
b00000000000000000000000000000000 L
b00000000000000000000000000000000 M
b00000000000000000000000000000000 N
b00000000000000000000000000000000 O
b00000000000000000000000000000000 P
b00000 Q
b00000 R
b00000 S
b0000000 T
b10000000000000000000000001001000 V
b00000000000000000000000000000000 W
0Y
b00000 Z
b00000000000000000000000000000000 [
b00000000000000000000000000000000 \
b00000000000000000000000000000000 ]
b00000000000000000000000000000000 ^
1`
#75
0`
b00000000000100001000000010010011 b
#76
b00000000000000000000000000000000 #
0$
b10000000000000000000000001001000 '
b10000000000000000000000001001000 (
b00000 )
b00000000000000000000000000001100 +
b10000000000000000000000001001100 _
1`
b00000000000000000000000000000000 b
b10000000000000000000000001001100 c
#77
0`
#78
b00000000000000000000000000001100 J
b00000000000000000000000000001100 K
b00000000000000000000000000001100 L
b00000000000000000000000000001101 M
b00000000000000000000000000001101 N
b00000000000000000000000000000001 O
b00000000000100001000000010010011 P
b00001 Q
b00001 R
b00001 S
b0010011 T
b10000000000000000000000001001100 V
b00000000000000000000000000000001 W
1Y
b00001 Z
b00000000000000000000000000000001 [
b00000000000000000000100000000000 \
b00000000000100001000000000000000 ]
b00000000000000001000100000000000 ^
1`
b00000000000100001000000010010011 b
#79
0`
b00000000000000000000000000000000 b
#80
b00000000000000000000000000001101 #
1$
b10000000000000000000000001001100 '
b10000000000000000000000001001100 (
b00001 )
b00000000000000000000000000000000 J
b00000000000000000000000000000000 K
b00000000000000000000000000000000 L
b00000000000000000000000000000000 M
b00000000000000000000000000000000 N
b00000000000000000000000000000000 O
b00000000000000000000000000000000 P
b00000 Q
b00000 R
b00000 S
b0000000 T
b00000000000000000000000000000000 W
0Y
b00000 Z
b00000000000000000000000000000000 [
b00000000000000000000000000000000 \
b00000000000000000000000000000000 ]
b00000000000000000000000000000000 ^
b10000000000000000000000001010000 _
1`
b10000000000000000000000001010000 c
#81
0`
b00000000000100001000000010010011 b
#82
b00000000000000000000000000000000 #
0$
b00000 )
b00000000000000000000000000001101 +
b10000000000000000000000001010000 V
1`
b00000000000000000000000000000000 b
#83
0`
#84
b10000000000000000000000001010000 '
b10000000000000000000000001010000 (
b00000000000000000000000000001101 J
b00000000000000000000000000001101 K
b00000000000000000000000000001101 L
b00000000000000000000000000001110 M
b00000000000000000000000000001110 N
b00000000000000000000000000000001 O
b00000000000100001000000010010011 P
b00001 Q
b00001 R
b00001 S
b0010011 T
b00000000000000000000000000000001 W
1Y
b00001 Z
b00000000000000000000000000000001 [
b00000000000000000000100000000000 \
b00000000000100001000000000000000 ]
b00000000000000001000100000000000 ^
b10000000000000000000000001010100 _
1`
b00000000000100001000000010010011 b
b10000000000000000000000001010100 c
#85
0`
b00000000000000000000000000000000 b
#86
b00000000000000000000000000001110 #
1$
b00001 )
b00000000000000000000000000000000 J
b00000000000000000000000000000000 K
b00000000000000000000000000000000 L
b00000000000000000000000000000000 M
b00000000000000000000000000000000 N
b00000000000000000000000000000000 O
b00000000000000000000000000000000 P
b00000 Q
b00000 R
b00000 S
b0000000 T
b10000000000000000000000001010100 V
b00000000000000000000000000000000 W
0Y
b00000 Z
b00000000000000000000000000000000 [
b00000000000000000000000000000000 \
b00000000000000000000000000000000 ]
b00000000000000000000000000000000 ^
1`
#87
0`
b00000000000100001000000010010011 b
#88
b00000000000000000000000000000000 #
0$
b10000000000000000000000001010100 '
b10000000000000000000000001010100 (
b00000 )
b00000000000000000000000000001110 +
b10000000000000000000000001011000 _
1`
b00000000000000000000000000000000 b
b10000000000000000000000001011000 c
#89
0`
#90
b00000000000000000000000000001110 J
b00000000000000000000000000001110 K
b00000000000000000000000000001110 L
b00000000000000000000000000001111 M
b00000000000000000000000000001111 N
b00000000000000000000000000000001 O
b00000000000100001000000010010011 P
b00001 Q
b00001 R
b00001 S
b0010011 T
b10000000000000000000000001011000 V
b00000000000000000000000000000001 W
1Y
b00001 Z
b00000000000000000000000000000001 [
b00000000000000000000100000000000 \
b00000000000100001000000000000000 ]
b00000000000000001000100000000000 ^
1`
b00000000000100001000000010010011 b
#91
0`
b00000000000000000000000000000000 b
#92
b00000000000000000000000000001111 #
1$
b10000000000000000000000001011000 '
b10000000000000000000000001011000 (
b00001 )
b00000000000000000000000000000000 J
b00000000000000000000000000000000 K
b00000000000000000000000000000000 L
b00000000000000000000000000000000 M
b00000000000000000000000000000000 N
b00000000000000000000000000000000 O
b00000000000000000000000000000000 P
b00000 Q
b00000 R
b00000 S
b0000000 T
b00000000000000000000000000000000 W
0Y
b00000 Z
b00000000000000000000000000000000 [
b00000000000000000000000000000000 \
b00000000000000000000000000000000 ]
b00000000000000000000000000000000 ^
b10000000000000000000000001011100 _
1`
b10000000000000000000000001011100 c
#93
0`
b00000000000100001000000010010011 b
#94
b00000000000000000000000000000000 #
0$
b00000 )
b00000000000000000000000000001111 +
b10000000000000000000000001011100 V
1`
b00000000000000000000000000000000 b
#95
0`
