npc/sim.vcd
$version Generated by VerilatedVcd $end
$timescale 1ps $end

 $scope module TOP $end
  $var wire 32 g EXaddr [31:0] $end
  $var wire 32 d addr_read_data [31:0] $end
  $var wire 32 f addr_write_data [31:0] $end
  $var wire  1 h addr_write_enable $end
  $var wire  1 b cpu_clk $end
  $var wire  1 c cpu_rs $end
  $var wire 32 e npc [31:0] $end
  $scope module ysyx_24090003_cpu $end
   $var wire 32 g EXaddr [31:0] $end
   $var wire 32 ' EXnpc [31:0] $end
   $var wire  5 ) EXrd [4:0] $end
   $var wire 32 ( EXspc [31:0] $end
   $var wire 32 d addr_read_data [31:0] $end
   $var wire 32 f addr_write_data [31:0] $end
   $var wire  1 h addr_write_enable $end
   $var wire  1 b cpu_clk $end
   $var wire  1 c cpu_rs $end
   $var wire  3 U funct [2:0] $end
   $var wire 32 O imm [31:0] $end
   $var wire 32 P inst [31:0] $end
   $var wire 32 e npc [31:0] $end
   $var wire  1 % npc_write_enable $end
   $var wire  7 T opcode [6:0] $end
   $var wire 32 V pc [31:0] $end
   $var wire  5 S rd [4:0] $end
   $var wire 32 J reg_read_data1 [31:0] $end
   $var wire 32 K reg_read_data2 [31:0] $end
   $var wire 32 # reg_write_data [31:0] $end
   $var wire  1 $ reg_write_enable $end
   $var wire  5 Q rs1 [4:0] $end
   $var wire  5 R rs2 [4:0] $end
   $var wire  1 & spc_write_enable $end
   $scope module ysyx_24090003_EXU $end
    $var wire 32 g EXaddr [31:0] $end
    $var wire 32 j EXaddr_r [31:0] $end
    $var wire 32 ' EXnpc [31:0] $end
    $var wire 32 V EXnpc_r [31:0] $end
    $var wire  5 ) EXrd [4:0] $end
    $var wire  5 Z EXrd_r [4:0] $end
    $var wire 32 ( EXspc [31:0] $end
    $var wire 32 V EXspc_r [31:0] $end
    $var wire 32 f addr_write_data [31:0] $end
    $var wire  1 k addr_write_data_enable_r $end
    $var wire 32 j addr_write_data_r [31:0] $end
    $var wire  1 h addr_write_enable $end
    $var wire  3 X alu_control [2:0] $end
    $var wire 32 N alu_result [31:0] $end
    $var wire  1 b cpu_clk $end
    $var wire  3 U funct [2:0] $end
    $var wire 32 O imm [31:0] $end
    $var wire  1 % npc_write_enable $end
    $var wire  1 k npc_write_enable_r $end
    $var wire  7 T opcode [6:0] $end
    $var wire 32 L operand1 [31:0] $end
    $var wire 32 L operand1_r [31:0] $end
    $var wire 32 W operand2 [31:0] $end
    $var wire 32 W operand2_r [31:0] $end
    $var wire 32 V pc [31:0] $end
    $var wire  5 S rd [4:0] $end
    $var wire 32 J reg_read_data1 [31:0] $end
    $var wire 32 K reg_read_data2 [31:0] $end
    $var wire 32 # reg_write_data [31:0] $end
    $var wire  1 Y reg_write_data_enable_r $end
    $var wire 32 M reg_write_data_r [31:0] $end
    $var wire  1 $ reg_write_enable $end
    $var wire  1 & spc_write_enable $end
    $var wire  1 k spc_write_enable_r $end
    $scope module ysyx_24090003_alu $end
     $var wire  3 X alu_control [2:0] $end
     $var wire 32 L operand1 [31:0] $end
     $var wire 32 W operand2 [31:0] $end
     $var wire 32 N result [31:0] $end
    $upscope $end
   $upscope $end
   $scope module ysyx_24090003_IDU $end
    $var wire  3 U funct [2:0] $end
    $var wire 32 O imm [31:0] $end
    $var wire 32 P inst [31:0] $end
    $var wire  7 T opcode [6:0] $end
    $var wire  5 S rd [4:0] $end
    $var wire  5 Q rs1 [4:0] $end
    $var wire  5 R rs2 [4:0] $end
    $scope module ysyx_24090003_immT $end
     $var wire  3 [ Itype [2:0] $end
     $var wire 32 O imm [31:0] $end
     $var wire 32 ^ immB [31:0] $end
     $var wire 32 \ immI [31:0] $end
     $var wire 32 ` immJ [31:0] $end
     $var wire 32 ] immS [31:0] $end
     $var wire 32 _ immU [31:0] $end
     $var wire 32 P inst [31:0] $end
     $scope module ysyx_24090003_instType $end
      $var wire  3 [ Itype [2:0] $end
      $var wire  7 T inst [6:0] $end
     $upscope $end
    $upscope $end
   $upscope $end
   $scope module ysyx_24090003_IFU $end
    $var wire 32 ' EXnpc [31:0] $end
    $var wire 32 ( EXspc [31:0] $end
    $var wire 32 d addr_read_data [31:0] $end
    $var wire  1 b cpu_clk $end
    $var wire  1 c cpu_rs $end
    $var wire 32 P inst [31:0] $end
    $var wire 32 P inst_r [31:0] $end
    $var wire 32 e npc [31:0] $end
    $var wire 32 a npc_r [31:0] $end
    $var wire  1 % npc_write_enable $end
    $var wire 32 V pc [31:0] $end
    $var wire 32 V pc_r [31:0] $end
    $var wire 32 i spc_r [31:0] $end
    $var wire  1 & spc_write_enable $end
   $upscope $end
   $scope module ysyx_24090003_regcontrol $end
    $var wire  5 ) EXrd [4:0] $end
    $var wire  1 b cpu_clk $end
    $var wire 32 * gpr[0] [31:0] $end
    $var wire 32 4 gpr[10] [31:0] $end
    $var wire 32 5 gpr[11] [31:0] $end
    $var wire 32 6 gpr[12] [31:0] $end
    $var wire 32 7 gpr[13] [31:0] $end
    $var wire 32 8 gpr[14] [31:0] $end
    $var wire 32 9 gpr[15] [31:0] $end
    $var wire 32 : gpr[16] [31:0] $end
    $var wire 32 ; gpr[17] [31:0] $end
    $var wire 32 < gpr[18] [31:0] $end
    $var wire 32 = gpr[19] [31:0] $end
    $var wire 32 + gpr[1] [31:0] $end
    $var wire 32 > gpr[20] [31:0] $end
    $var wire 32 ? gpr[21] [31:0] $end
    $var wire 32 @ gpr[22] [31:0] $end
    $var wire 32 A gpr[23] [31:0] $end
    $var wire 32 B gpr[24] [31:0] $end
    $var wire 32 C gpr[25] [31:0] $end
    $var wire 32 D gpr[26] [31:0] $end
    $var wire 32 E gpr[27] [31:0] $end
    $var wire 32 F gpr[28] [31:0] $end
    $var wire 32 G gpr[29] [31:0] $end
    $var wire 32 , gpr[2] [31:0] $end
    $var wire 32 H gpr[30] [31:0] $end
    $var wire 32 I gpr[31] [31:0] $end
    $var wire 32 - gpr[3] [31:0] $end
    $var wire 32 . gpr[4] [31:0] $end
    $var wire 32 / gpr[5] [31:0] $end
    $var wire 32 0 gpr[6] [31:0] $end
    $var wire 32 1 gpr[7] [31:0] $end
    $var wire 32 2 gpr[8] [31:0] $end
    $var wire 32 3 gpr[9] [31:0] $end
    $var wire 32 J reg_read_data1 [31:0] $end
    $var wire 32 K reg_read_data2 [31:0] $end
    $var wire 32 # reg_write_data [31:0] $end
    $var wire  1 $ reg_write_enable $end
    $var wire  5 Q rs1 [4:0] $end
    $var wire  5 R rs2 [4:0] $end
   $upscope $end
  $upscope $end
 $upscope $end
$enddefinitions $end


#0
b00000000000000000000000000000000 #
0$
0%
0&
b00000000000000000000000000000000 '
b00000000000000000000000000000000 (
b00000 )
b00000000000000000000000000000000 *
b00000000000000000000000000000000 +
b00000000000000000000000000000000 ,
b00000000000000000000000000000000 -
b00000000000000000000000000000000 .
b00000000000000000000000000000000 /
b00000000000000000000000000000000 0
b00000000000000000000000000000000 1
b00000000000000000000000000000000 2
b00000000000000000000000000000000 3
b00000000000000000000000000000000 4
b00000000000000000000000000000000 5
b00000000000000000000000000000000 6
b00000000000000000000000000000000 7
b00000000000000000000000000000000 8
b00000000000000000000000000000000 9
b00000000000000000000000000000000 :
b00000000000000000000000000000000 ;
b00000000000000000000000000000000 <
b00000000000000000000000000000000 =
b00000000000000000000000000000000 >
b00000000000000000000000000000000 ?
b00000000000000000000000000000000 @
b00000000000000000000000000000000 A
b00000000000000000000000000000000 B
b00000000000000000000000000000000 C
b00000000000000000000000000000000 D
b00000000000000000000000000000000 E
b00000000000000000000000000000000 F
b00000000000000000000000000000000 G
b00000000000000000000000000000000 H
b00000000000000000000000000000000 I
b00000000000000000000000000000000 J
b00000000000000000000000000000000 K
b00000000000000000000000000000000 L
b00000000000000000000000000000000 M
b00000000000000000000000000000000 N
b00000000000000000000000000000001 O
b00000000000000000000000000000000 P
b00000 Q
b00000 R
b00000 S
b0000000 T
b000 U
b00000000000000000000000000000000 V
b00000000000000000000000000000000 W
b000 X
0Y
b00000 Z
b000 [
b00000000000000000000000000000000 \
b00000000000000000000000000000000 ]
b00000000000000000000000000000000 ^
b00000000000000000000000000000000 _
b00000000000000000000000000000000 `
b00000000000000000000000000000000 a
1b
1c
b00000000000100001000000010010011 d
b00000000000000000000000000000000 e
b00000000000000000000000000000000 f
b00000000000000000000000000000000 g
0h
b00000000000000000000000000000000 i
b00000000000000000000000000000000 j
0k
#1
0b
0c
#2
b00000000000000000000000000000100 a
1b
b00000000000000000000000000000000 d
b00000000000000000000000000000100 e
#3
0b
#4
b00000000000000000000000000000001 M
b00000000000000000000000000000001 N
b00000000000100001000000010010011 P
b00001 Q
b00001 R
b00001 S
b0010011 T
b00000000000000000000000000000100 V
b00000000000000000000000000000001 W
1Y
b00001 Z
b001 [
b00000000000000000000000000000001 \
b00000000000000000000000000000001 ]
b00000000000000000000100000000000 ^
b00000000000100001000000000000000 _
b00000000000000001000100000000000 `
1b
b00000000000100001000000010010011 d
#5
0b
#6
b00000000000000000000000000000001 #
1$
b00000000000000000000000000000100 '
b00000000000000000000000000000100 (
b00001 )
b00000000000000000000000000000000 M
b00000000000000000000000000000000 N
b00000000000000000000000000000000 P
b00000 Q
b00000 R
b00000 S
b0000000 T
b00000000000000000000000000000000 W
0Y
b00000 Z
b000 [
b00000000000000000000000000000000 \
b00000000000000000000000000000000 ]
b00000000000000000000000000000000 ^
b00000000000000000000000000000000 _
b00000000000000000000000000000000 `
b00000000000000000000000000001000 a
1b
b00000000000000000000000000000000 d
b00000000000000000000000000001000 e
#7
0b
#8
b00000000000000000000000000000000 #
0$
b00000 )
b00000000000000000000000000000001 +
b00000000000000000000000000000001 J
b00000000000000000000000000000001 K
b00000000000000000000000000000001 L
b00000000000000000000000000000010 M
b00000000000000000000000000000010 N
b00000000000100001000000010010011 P
b00001 Q
b00001 R
b00001 S
b0010011 T
b00000000000000000000000000001000 V
b00000000000000000000000000000001 W
1Y
b00001 Z
b001 [
b00000000000000000000000000000001 \
b00000000000000000000000000000001 ]
b00000000000000000000100000000000 ^
b00000000000100001000000000000000 _
b00000000000000001000100000000000 `
1b
b00000000000100001000000010010011 d
#9
0b
#10
b00000000000000000000000000000010 #
1$
b00000000000000000000000000001000 '
b00000000000000000000000000001000 (
b00001 )
b00000000000000000000000000000000 J
b00000000000000000000000000000000 K
b00000000000000000000000000000000 L
b00000000000000000000000000000000 M
b00000000000000000000000000000000 N
b00000000000000000000000000000000 P
b00000 Q
b00000 R
b00000 S
b0000000 T
b00000000000000000000000000000000 W
0Y
b00000 Z
b000 [
b00000000000000000000000000000000 \
b00000000000000000000000000000000 ]
b00000000000000000000000000000000 ^
b00000000000000000000000000000000 _
b00000000000000000000000000000000 `
b00000000000000000000000000001100 a
1b
b00000000000000000000000000000000 d
b00000000000000000000000000001100 e
#11
0b
#12
b00000000000000000000000000000000 #
0$
b00000 )
b00000000000000000000000000000010 +
b00000000000000000000000000000010 J
b00000000000000000000000000000010 K
b00000000000000000000000000000010 L
b00000000000000000000000000000011 M
b00000000000000000000000000000011 N
b00000000000100001000000010010011 P
b00001 Q
b00001 R
b00001 S
b0010011 T
b00000000000000000000000000001100 V
b00000000000000000000000000000001 W
1Y
b00001 Z
b001 [
b00000000000000000000000000000001 \
b00000000000000000000000000000001 ]
b00000000000000000000100000000000 ^
b00000000000100001000000000000000 _
b00000000000000001000100000000000 `
1b
b00000000000100001000000010010011 d
#13
0b
#14
b00000000000000000000000000000011 #
1$
b00000000000000000000000000001100 '
b00000000000000000000000000001100 (
b00001 )
b00000000000000000000000000000000 J
b00000000000000000000000000000000 K
b00000000000000000000000000000000 L
b00000000000000000000000000000000 M
b00000000000000000000000000000000 N
b00000000000000000000000000000000 P
b00000 Q
b00000 R
b00000 S
b0000000 T
b00000000000000000000000000000000 W
0Y
b00000 Z
b000 [
b00000000000000000000000000000000 \
b00000000000000000000000000000000 ]
b00000000000000000000000000000000 ^
b00000000000000000000000000000000 _
b00000000000000000000000000000000 `
b00000000000000000000000000010000 a
1b
b00000000000000000000000000000000 d
b00000000000000000000000000010000 e
#15
0b
#16
b00000000000000000000000000000000 #
0$
b00000 )
b00000000000000000000000000000011 +
b00000000000000000000000000000011 J
b00000000000000000000000000000011 K
b00000000000000000000000000000011 L
b00000000000000000000000000000100 M
b00000000000000000000000000000100 N
b00000000000100001000000010010011 P
b00001 Q
b00001 R
b00001 S
b0010011 T
b00000000000000000000000000010000 V
b00000000000000000000000000000001 W
1Y
b00001 Z
b001 [
b00000000000000000000000000000001 \
b00000000000000000000000000000001 ]
b00000000000000000000100000000000 ^
b00000000000100001000000000000000 _
b00000000000000001000100000000000 `
1b
b00000000000100001000000010010011 d
#17
0b
#18
b00000000000000000000000000000100 #
1$
b00000000000000000000000000010000 '
b00000000000000000000000000010000 (
b00001 )
b00000000000000000000000000000000 J
b00000000000000000000000000000000 K
b00000000000000000000000000000000 L
b00000000000000000000000000000000 M
b00000000000000000000000000000000 N
b00000000000000000000000000000000 P
b00000 Q
b00000 R
b00000 S
b0000000 T
b00000000000000000000000000000000 W
0Y
b00000 Z
b000 [
b00000000000000000000000000000000 \
b00000000000000000000000000000000 ]
b00000000000000000000000000000000 ^
b00000000000000000000000000000000 _
b00000000000000000000000000000000 `
b00000000000000000000000000010100 a
1b
b00000000000000000000000000000000 d
b00000000000000000000000000010100 e
#19
0b
#20
b00000000000000000000000000000000 #
0$
b00000 )
b00000000000000000000000000000100 +
b00000000000000000000000000000100 J
b00000000000000000000000000000100 K
b00000000000000000000000000000100 L
b00000000000000000000000000000101 M
b00000000000000000000000000000101 N
b00000000000100001000000010010011 P
b00001 Q
b00001 R
b00001 S
b0010011 T
b00000000000000000000000000010100 V
b00000000000000000000000000000001 W
1Y
b00001 Z
b001 [
b00000000000000000000000000000001 \
b00000000000000000000000000000001 ]
b00000000000000000000100000000000 ^
b00000000000100001000000000000000 _
b00000000000000001000100000000000 `
1b
b00000000000100001000000010010011 d
#21
0b
#22
b00000000000000000000000000000101 #
1$
b00000000000000000000000000010100 '
b00000000000000000000000000010100 (
b00001 )
b00000000000000000000000000000000 J
b00000000000000000000000000000000 K
b00000000000000000000000000000000 L
b00000000000000000000000000000000 M
b00000000000000000000000000000000 N
b00000000000000000000000000000000 P
b00000 Q
b00000 R
b00000 S
b0000000 T
b00000000000000000000000000000000 W
0Y
b00000 Z
b000 [
b00000000000000000000000000000000 \
b00000000000000000000000000000000 ]
b00000000000000000000000000000000 ^
b00000000000000000000000000000000 _
b00000000000000000000000000000000 `
b00000000000000000000000000011000 a
1b
b00000000000000000000000000000000 d
b00000000000000000000000000011000 e
#23
0b
#24
b00000000000000000000000000000000 #
0$
b00000 )
b00000000000000000000000000000101 +
b00000000000000000000000000000101 J
b00000000000000000000000000000101 K
b00000000000000000000000000000101 L
b00000000000000000000000000000110 M
b00000000000000000000000000000110 N
b00000000000100001000000010010011 P
b00001 Q
b00001 R
b00001 S
b0010011 T
b00000000000000000000000000011000 V
b00000000000000000000000000000001 W
1Y
b00001 Z
b001 [
b00000000000000000000000000000001 \
b00000000000000000000000000000001 ]
b00000000000000000000100000000000 ^
b00000000000100001000000000000000 _
b00000000000000001000100000000000 `
1b
b00000000000100001000000010010011 d
#25
0b
#26
b00000000000000000000000000000110 #
1$
b00000000000000000000000000011000 '
b00000000000000000000000000011000 (
b00001 )
b00000000000000000000000000000000 J
b00000000000000000000000000000000 K
b00000000000000000000000000000000 L
b00000000000000000000000000000000 M
b00000000000000000000000000000000 N
b00000000000000000000000000000000 P
b00000 Q
b00000 R
b00000 S
b0000000 T
b00000000000000000000000000000000 W
0Y
b00000 Z
b000 [
b00000000000000000000000000000000 \
b00000000000000000000000000000000 ]
b00000000000000000000000000000000 ^
b00000000000000000000000000000000 _
b00000000000000000000000000000000 `
b00000000000000000000000000011100 a
1b
b00000000000000000000000000000000 d
b00000000000000000000000000011100 e
#27
0b
#28
b00000000000000000000000000000000 #
0$
b00000 )
b00000000000000000000000000000110 +
b00000000000000000000000000000110 J
b00000000000000000000000000000110 K
b00000000000000000000000000000110 L
b00000000000000000000000000000111 M
b00000000000000000000000000000111 N
b00000000000100001000000010010011 P
b00001 Q
b00001 R
b00001 S
b0010011 T
b00000000000000000000000000011100 V
b00000000000000000000000000000001 W
1Y
b00001 Z
b001 [
b00000000000000000000000000000001 \
b00000000000000000000000000000001 ]
b00000000000000000000100000000000 ^
b00000000000100001000000000000000 _
b00000000000000001000100000000000 `
1b
b00000000000100001000000010010011 d
#29
0b
#30
b00000000000000000000000000000111 #
1$
b00000000000000000000000000011100 '
b00000000000000000000000000011100 (
b00001 )
b00000000000000000000000000000000 J
b00000000000000000000000000000000 K
b00000000000000000000000000000000 L
b00000000000000000000000000000000 M
b00000000000000000000000000000000 N
b00000000000000000000000000000000 P
b00000 Q
b00000 R
b00000 S
b0000000 T
b00000000000000000000000000000000 W
0Y
b00000 Z
b000 [
b00000000000000000000000000000000 \
b00000000000000000000000000000000 ]
b00000000000000000000000000000000 ^
b00000000000000000000000000000000 _
b00000000000000000000000000000000 `
b00000000000000000000000000100000 a
1b
b00000000000000000000000000000000 d
b00000000000000000000000000100000 e
#31
0b
#32
b00000000000000000000000000000000 #
0$
b00000 )
b00000000000000000000000000000111 +
b00000000000000000000000000000111 J
b00000000000000000000000000000111 K
b00000000000000000000000000000111 L
b00000000000000000000000000001000 M
b00000000000000000000000000001000 N
b00000000000100001000000010010011 P
b00001 Q
b00001 R
b00001 S
b0010011 T
b00000000000000000000000000100000 V
b00000000000000000000000000000001 W
1Y
b00001 Z
b001 [
b00000000000000000000000000000001 \
b00000000000000000000000000000001 ]
b00000000000000000000100000000000 ^
b00000000000100001000000000000000 _
b00000000000000001000100000000000 `
1b
b00000000000100001000000010010011 d
#33
0b
#34
b00000000000000000000000000001000 #
1$
b00000000000000000000000000100000 '
b00000000000000000000000000100000 (
b00001 )
b00000000000000000000000000000000 J
b00000000000000000000000000000000 K
b00000000000000000000000000000000 L
b00000000000000000000000000000000 M
b00000000000000000000000000000000 N
b00000000000000000000000000000000 P
b00000 Q
b00000 R
b00000 S
b0000000 T
b00000000000000000000000000000000 W
0Y
b00000 Z
b000 [
b00000000000000000000000000000000 \
b00000000000000000000000000000000 ]
b00000000000000000000000000000000 ^
b00000000000000000000000000000000 _
b00000000000000000000000000000000 `
b00000000000000000000000000100100 a
1b
b00000000000000000000000000000000 d
b00000000000000000000000000100100 e
#35
0b
#36
b00000000000000000000000000000000 #
0$
b00000 )
b00000000000000000000000000001000 +
b00000000000000000000000000001000 J
b00000000000000000000000000001000 K
b00000000000000000000000000001000 L
b00000000000000000000000000001001 M
b00000000000000000000000000001001 N
b00000000000100001000000010010011 P
b00001 Q
b00001 R
b00001 S
b0010011 T
b00000000000000000000000000100100 V
b00000000000000000000000000000001 W
1Y
b00001 Z
b001 [
b00000000000000000000000000000001 \
b00000000000000000000000000000001 ]
b00000000000000000000100000000000 ^
b00000000000100001000000000000000 _
b00000000000000001000100000000000 `
1b
b00000000000100001000000010010011 d
#37
0b
#38
b00000000000000000000000000001001 #
1$
b00000000000000000000000000100100 '
b00000000000000000000000000100100 (
b00001 )
b00000000000000000000000000000000 J
b00000000000000000000000000000000 K
b00000000000000000000000000000000 L
b00000000000000000000000000000000 M
b00000000000000000000000000000000 N
b00000000000000000000000000000000 P
b00000 Q
b00000 R
b00000 S
b0000000 T
b00000000000000000000000000000000 W
0Y
b00000 Z
b000 [
b00000000000000000000000000000000 \
b00000000000000000000000000000000 ]
b00000000000000000000000000000000 ^
b00000000000000000000000000000000 _
b00000000000000000000000000000000 `
b00000000000000000000000000101000 a
1b
b00000000000000000000000000000000 d
b00000000000000000000000000101000 e
#39
0b
#40
b00000000000000000000000000000000 #
0$
b00000 )
b00000000000000000000000000001001 +
b00000000000000000000000000001001 J
b00000000000000000000000000001001 K
b00000000000000000000000000001001 L
b00000000000000000000000000001010 M
b00000000000000000000000000001010 N
b00000000000100001000000010010011 P
b00001 Q
b00001 R
b00001 S
b0010011 T
b00000000000000000000000000101000 V
b00000000000000000000000000000001 W
1Y
b00001 Z
b001 [
b00000000000000000000000000000001 \
b00000000000000000000000000000001 ]
b00000000000000000000100000000000 ^
b00000000000100001000000000000000 _
b00000000000000001000100000000000 `
1b
b00000000000100001000000010010011 d
#41
0b
b00000000000100000000000001110011 d
#42
b00000000000000000000000000001010 #
1$
b00000000000000000000000000101000 '
b00000000000000000000000000101000 (
b00001 )
b00000000000000000000000000000000 J
b00000000000000000000000000000000 K
b00000000000000000000000000000000 L
b00000000000000000000000000000000 M
b00000000000000000000000000000000 N
b00000000000000000000000000000000 P
b00000 Q
b00000 R
b00000 S
b0000000 T
b00000000000000000000000000000000 W
0Y
b00000 Z
b000 [
b00000000000000000000000000000000 \
b00000000000000000000000000000000 ]
b00000000000000000000000000000000 ^
b00000000000000000000000000000000 _
b00000000000000000000000000000000 `
b00000000000000000000000000101100 a
1b
b00000000000000000000000000000000 d
b00000000000000000000000000101100 e
#43
0b
#44
b00000000000000000000000000000000 #
0$
b00000 )
b00000000000000000000000000001010 +
b00000000000000000000000000001010 K
b00000000000100000000000001110011 P
b00001 R
b1110011 T
b00000000000000000000000000101100 V
b00000000000000000000000000000001 \
b00000000000100000000000000000000 _
b00000000000000000000100000000000 `
1b
b00000000000100000000000001110011 d
